id,name,model_id:id,group_id:id,perm_read,perm_write,perm_create,perm_unlink
access_project_project_owner,project.project,project.model_project_project,in4project.group_project_owner,1,1,1,1
access_account_analytic_account_owner,account.analytic.account,analytic.model_account_analytic_account,in4project.group_project_owner,1,1,1,1
access_project_task_type_owner,project.task.type,project.model_project_task_type,in4project.group_project_owner,1,0,0,0
access_project_tags_owner,project.tags,project.model_project_tags,in4project.group_project_owner,1,1,1,1